﻿<?xml version="1.0" encoding="UTF-8"?>
<TestRun id="26bd41b7-fad9-4bb0-be3b-9342b9e222f1" name="bob yang@LAPTOP 2011-06-07 21:34:27" runUser="laptop\bob yang" xmlns="http://microsoft.com/schemas/VisualStudio/TeamTest/2010">
  <TestSettings name="Local" id="2052640b-3bab-4551-a84f-14bc32543bf6">
    <Description>These are default test settings for a local test run.</Description>
    <Deployment enabled="false" runDeploymentRoot="bob yang_LAPTOP 2011-06-07 21_34_27">
      <DeploymentItem filename="C:\__PROJECTS__\CrazyKTVfromCashbox\CrazyKTVfromCashBox\bin\Debug\CashBox.exe" />
      <DeploymentItem filename="C:\__PROJECTS__\CrazyKTVfromCashbox\CrazyKTVfromCashBox\Libs\HtmlAgilityPack.dll" />
    </Deployment>
    <Execution>
      <TestTypeSpecific />
      <AgentRule name="Execution Agents">
      </AgentRule>
    </Execution>
  </TestSettings>
  <Times creation="2011-06-07T21:34:27.7986371-10:00" queuing="2011-06-07T21:34:30.1297704-10:00" start="2011-06-07T21:34:30.4467886-10:00" finish="2011-06-07T22:07:57.8936080-10:00" />
  <ResultSummary outcome="Error">
    <Counters total="1" executed="1" error="0" failed="0" timeout="0" aborted="1" inconclusive="0" passedButRunAborted="0" notRunnable="0" notExecuted="0" disconnected="0" warning="0" passed="0" completed="0" inProgress="0" pending="0" />
    <RunInfos>
      <RunInfo computerName="LAPTOP" outcome="Warning" timestamp="2011-06-07T21:34:27.8186383-10:00">
        <Text>Deployment is currently disabled. The deployment item 'CashBox.exe' on test 'TestProject1.MainWindowTest.testTest' was not deployed.</Text>
      </RunInfo>
      <RunInfo computerName="LAPTOP" outcome="Error" timestamp="2011-06-07T22:07:57.8016027-10:00">
        <Text>Test host process exited unexpectedly.</Text>
      </RunInfo>
    </RunInfos>
  </ResultSummary>
  <TestDefinitions>
    <UnitTest name="testTest" storage="c:\__projects__\crazyktvfromcashbox\testproject1\bin\debug\testproject1.dll" id="2b1cbb4f-1546-e53f-d31c-55527284ae46">
      <DeploymentItems>
        <DeploymentItem filename="CashBox.exe" />
      </DeploymentItems>
      <Execution id="8085244c-97ca-4606-b236-9f48f31f8ae8" />
      <TestMethod codeBase="C:/__PROJECTS__/CrazyKTVfromCashbox/TestProject1/bin/Debug/TestProject1.DLL" adapterTypeName="Microsoft.VisualStudio.TestTools.TestTypes.Unit.UnitTestAdapter, Microsoft.VisualStudio.QualityTools.Tips.UnitTest.Adapter, Version=10.0.0.0, Culture=neutral, PublicKeyToken=b03f5f7f11d50a3a" className="TestProject1.MainWindowTest, TestProject1, Version=1.0.0.0, Culture=neutral, PublicKeyToken=null" name="testTest" />
    </UnitTest>
  </TestDefinitions>
  <TestLists>
    <TestList name="Results Not in a List" id="8c84fa94-04c1-424b-9868-57a2d4851a1d" />
    <TestList name="All Loaded Results" id="19431567-8539-422a-85d7-44ee4e166bda" />
  </TestLists>
  <TestEntries>
    <TestEntry testId="2b1cbb4f-1546-e53f-d31c-55527284ae46" executionId="8085244c-97ca-4606-b236-9f48f31f8ae8" testListId="8c84fa94-04c1-424b-9868-57a2d4851a1d" />
  </TestEntries>
  <Results>
    <UnitTestResult executionId="8085244c-97ca-4606-b236-9f48f31f8ae8" testId="2b1cbb4f-1546-e53f-d31c-55527284ae46" testName="testTest" computerName="LAPTOP" duration="00:33:27.0607973" startTime="2011-06-07T21:34:30.8328107-10:00" endTime="2011-06-07T22:07:57.8936080-10:00" testType="13cdc9d9-ddb5-4fa4-a97d-d965ccfc6d4b" outcome="Aborted" testListId="8c84fa94-04c1-424b-9868-57a2d4851a1d" relativeResultsDirectory="8085244c-97ca-4606-b236-9f48f31f8ae8">
    </UnitTestResult>
  </Results>
</TestRun>